apple/apple_5d8033555301adea795b7c977db0d889_insideRemoved.pkl
banana/banana_7d78e217e0ba160fe2b248b8bb97d290.pkl
bottle/bottle_1cf98e5b6fff5471c8724d5673a063a6.pkl
bowl/bowl_7c43116dbe35797aea5000d9d3be7992_recalcShiftNorms_SubsurfCatmull.pkl
cup/cup_2b46c83c.pkl
donut/donut_5c848a830ec567bb9220647403cfb896.pkl
hammer/hammer_19311807.pkl
mug/mug_6a9b31e1298ca1109c515ccf0f61e75f.pkl
teapot/milk_jug_87fe197d.pkl
toilet_paper/tlt_paper.pkl




